{
                    "type": "object",
                    "id": "pivot_recursive",
					"description":"This object represents chainable pivot nodes for genarating trees of data",
                    "properties": {
                      "pivot": {
                        "type": "string",
						"description":"The pivots relavent selector"
                      }
                    },
                    "required": [
                      "pivot"
                    ],
                    "additionalProperties": {
                      "anyOf": [
                        {
                          "type": "string"
                        },
                        {
                          "$ref": "pivot_recursive.json"
                        }
                      ]
                    }
                  }