{
	"API_name":"Amazon_commerce_API",
	"API_image":"https://s3.amazonaws.com/BURC_Pages/downloads/a-smile_bw.png",
	"API_requires_auth_key":false,	
	"search":{
		"request":{
			"endpoint":"http://webservices.amazon.com/onca/xml",
			"method":"GET",
			"data":{
				"test1":"",
				"test2":"data:'test3' precedence:'1'",
				"test3":"data:'test4' precedence:'2'",
				"test4":"Hello :D"
				
				},
			"POST_data":{"test1":"data:'test1' precedence:'0'"},
			"GET_data":{
			
			}
		
		},
		"response":{
			"response_type":"json",
			"pivot":"['test']",
			"vars_to_look_for":{
				"name":{
					"goto":{
						"request":{
							"endpoint":"",
							"method":"GET"
						},
						"response":{
							"response_type":"json",
							"vars_to_look_for":{}
						},
						"errors":["error"]
							
						
					},
					"selector":""
				}
			}
		},
		"errors":["error"]
		
	}
}